…
    ## 32  asu_stroke11 13.8532754        NA            NA   asu_bed           1
    ## 33    asu_neuro4 13.5331919        NA            NA   asu_bed           1
    ## 34    asu_neuro4 16.7128499        NA            NA rehab_bed           1
    ## 35   asu_stroke8 10.0363922        NA            NA   asu_bed           1
    ## 36  asu_stroke14 17.1432238        NA            NA   asu_bed           1
    ## 37    asu_neuro2  6.7174941        NA            NA   asu_bed           1
    ## 38    asu_neuro2  8.3881898        NA            NA rehab_bed           1
    ## 39    asu_other7 19.7390660        NA            NA   asu_bed           1
    ## 40 rehab_stroke0  9.5062960        NA            NA rehab_bed           1
    ## 41  asu_stroke17 18.8504573        NA            NA   asu_bed           1
    ## 42    asu_neuro6 16.6529204        NA            NA   asu_bed           1
    ## 43 rehab_stroke1 14.0813875        NA            NA rehab_bed           1
    ## 
    ## $occupancy
    ## # A tibble: 42 × 3
    ##    resource   time occupancy
    ##    <fct>     <int>     <int>
    ##  1 asu_bed       0         0
    ##  2 rehab_bed     0         0
    ##  3 asu_bed       1         3
    ##  4 rehab_bed     1         0
    ##  5 asu_bed       2         5
    ##  6 rehab_bed     2         0
    ##  7 asu_bed       3         6
    ##  8 rehab_bed     3         0
    ##  9 asu_bed       4         6
    ## 10 rehab_bed     4         0
    ## # ℹ 32 more rows
